{"count":4298,"next":"https://toolhub.wikimedia.org/api/tools/?ordering=-modified_date&page=2&page_size=12","previous":null,"results":[{"name":"toolforge-logo-round-gen","title":"Logo round generator","description":"This tool is made to generate on the fly clean SVG / PNG version of the Logo round.","url":"https://toolsadmin.wikimedia.org/tools/id/logo-round-gen","keywords":["design","documentation","images"],"author":[{"name":"Christophe"}],"repository":null,"subtitle":null,"openhub_id":null,"url_alternates":[],"bot_username":null,"deprecated":false,"replaced_by":null,"experimental":false,"for_wikis":[],"icon":null,"license":"AGPL-3.0-or-later","sponsor":[],"available_ui_languages":[],"technology_used":["Toolforge"],"tool_type":null,"api_url":null,"developer_docs_url":[],"user_docs_url":[],"feedback_url":[],"privacy_policy_url":[],"translate_url":null,"bugtracker_url":null,"annotations":{"wikidata_qid":null,"audiences":[],"content_types":[],"tasks":[],"subject_domains":[],"deprecated":false,"replaced_by":null,"experimental":false,"for_wikis":[],"icon":null,"available_ui_languages":[],"tool_type":null,"repository":null,"api_url":null,"developer_docs_url":[],"user_docs_url":[],"feedback_url":[],"privacy_policy_url":[],"translate_url":null,"bugtracker_url":null},"_schema":"/toolinfo/1.2.2","_language":"en","origin":"crawler","created_by":{"id":9,"username":"Toolhub"},"created_date":"2026-06-09T20:00:40.279512Z","modified_by":{"id":9,"username":"Toolhub"},"modified_date":"2026-06-09T20:00:40.279562Z"},{"name":"toolforge-acd","title":"Account Creation Dashboard","description":"Outreach Tool for Wikimedia Bangladesh — a tool that facilitates Wikimedia account creation during offline events, workshops, edit-a-thons, and outreach programs, helping organizers register participants efficiently while complying with Wikimedia account creation limits. It can streamline participant onboarding, track created accounts, and support event management.","url":"https://acd.toolforge.org/","keywords":[],"author":[{"name":"মুহাম্মদ ইয়াহিয়া"}],"repository":null,"subtitle":null,"openhub_id":null,"url_alternates":[],"bot_username":null,"deprecated":false,"replaced_by":null,"experimental":false,"for_wikis":[],"icon":null,"license":"MIT","sponsor":[],"available_ui_languages":[],"technology_used":["Toolforge"],"tool_type":"web app","api_url":null,"developer_docs_url":[],"user_docs_url":[],"feedback_url":[],"privacy_policy_url":[],"translate_url":null,"bugtracker_url":null,"annotations":{"wikidata_qid":null,"audiences":[],"content_types":[],"tasks":[],"subject_domains":[],"deprecated":false,"replaced_by":null,"experimental":false,"for_wikis":[],"icon":null,"available_ui_languages":[],"tool_type":null,"repository":null,"api_url":null,"developer_docs_url":[],"user_docs_url":[],"feedback_url":[],"privacy_policy_url":[],"translate_url":null,"bugtracker_url":null},"_schema":"/toolinfo/1.2.2","_language":"en","origin":"crawler","created_by":{"id":9,"username":"Toolhub"},"created_date":"2026-06-09T19:00:46.649025Z","modified_by":{"id":9,"username":"Toolhub"},"modified_date":"2026-06-09T19:00:46.649060Z"},{"name":"toolforge-linkid","title":"LinkID Resolver","description":"Open-source thin-proxy resolver for LinkID persistent identifiers. Resolves /r/<uuid>, /s/<uuid> and /l/<uuid> to current, health-checked destinations so Wikipedia citations survive link rot.","url":"https://linkid.toolforge.org/","keywords":["link rot","persistent identifier","resolver","citations","wikipedia"],"author":[{"name":"Christian Nyffenegger"}],"repository":"https://gitlab.wikimedia.org/toolforge-repos/linkid","subtitle":null,"openhub_id":null,"url_alternates":[],"bot_username":null,"deprecated":false,"replaced_by":null,"experimental":false,"for_wikis":[],"icon":null,"license":"MIT","sponsor":[],"available_ui_languages":[],"technology_used":["Toolforge"],"tool_type":"web app","api_url":null,"developer_docs_url":[],"user_docs_url":[],"feedback_url":[],"privacy_policy_url":[],"translate_url":null,"bugtracker_url":null,"annotations":{"wikidata_qid":null,"audiences":[],"content_types":[],"tasks":[],"subject_domains":[],"deprecated":false,"replaced_by":null,"experimental":false,"for_wikis":[],"icon":null,"available_ui_languages":[],"tool_type":null,"repository":null,"api_url":null,"developer_docs_url":[],"user_docs_url":[],"feedback_url":[],"privacy_policy_url":[],"translate_url":null,"bugtracker_url":null},"_schema":"/toolinfo/1.2.2","_language":"en","origin":"crawler","created_by":{"id":9,"username":"Toolhub"},"created_date":"2026-06-09T15:00:33.170318Z","modified_by":{"id":9,"username":"Toolhub"},"modified_date":"2026-06-09T15:00:33.170346Z"},{"name":"mediawiki-feeds","title":"MediaWiki Feeds","description":"A tool to generate RSS and iCalendar feeds for pages in MediaWiki categories.","url":"http://tools.wmflabs.org/mediawiki-feeds","keywords":["rss","ical","icalendar","calendars","events","feeds","syndication","wikiversity","newsletters","blogging","blogs"],"author":[{"name":"Sam Wilson"}],"repository":"https://gitlab.wikimedia.org/toolforge-repos/mediawiki-feeds","subtitle":null,"openhub_id":null,"url_alternates":[],"bot_username":null,"deprecated":false,"replaced_by":null,"experimental":false,"for_wikis":[],"icon":null,"license":null,"sponsor":[],"available_ui_languages":[],"technology_used":[],"tool_type":null,"api_url":null,"developer_docs_url":[],"user_docs_url":[],"feedback_url":[],"privacy_policy_url":[],"translate_url":null,"bugtracker_url":null,"annotations":{"wikidata_qid":null,"audiences":[],"content_types":[],"tasks":[],"subject_domains":[],"deprecated":false,"replaced_by":null,"experimental":false,"for_wikis":[],"icon":null,"available_ui_languages":[],"tool_type":null,"repository":"https://github.com/samwilson/mediawiki-feeds","api_url":null,"developer_docs_url":[],"user_docs_url":[],"feedback_url":[],"privacy_policy_url":[],"translate_url":null,"bugtracker_url":"https://github.com/samwilson/mediawiki-feeds/issues"},"_schema":null,"_language":"en","origin":"crawler","created_by":{"id":9,"username":"Toolhub"},"created_date":"2021-10-10T21:05:48.030263Z","modified_by":{"id":271,"username":"Abdulmalik795"},"modified_date":"2026-06-09T04:02:54.261570Z"},{"name":"toolforge-ahbot","title":"AHbot","description":"tools for AHbot maintenance","url":"https://toolsadmin.wikimedia.org/tools/id/ahbot","keywords":[],"author":[{"name":"Ahonc"}],"repository":"https://gitlab.wikimedia.org/toolforge-repos/ahbot","subtitle":null,"openhub_id":null,"url_alternates":[],"bot_username":null,"deprecated":false,"replaced_by":null,"experimental":false,"for_wikis":[],"icon":null,"license":"GPL-2.0-or-later","sponsor":[],"available_ui_languages":[],"technology_used":["Toolforge"],"tool_type":null,"api_url":null,"developer_docs_url":[],"user_docs_url":[],"feedback_url":[],"privacy_policy_url":[],"translate_url":null,"bugtracker_url":null,"annotations":{"wikidata_qid":null,"audiences":[],"content_types":[],"tasks":[],"subject_domains":[],"deprecated":false,"replaced_by":null,"experimental":false,"for_wikis":[],"icon":null,"available_ui_languages":[],"tool_type":null,"repository":null,"api_url":null,"developer_docs_url":[],"user_docs_url":[],"feedback_url":[],"privacy_policy_url":[],"translate_url":null,"bugtracker_url":null},"_schema":"/toolinfo/1.2.2","_language":"en","origin":"crawler","created_by":{"id":9,"username":"Toolhub"},"created_date":"2026-06-08T17:00:44.599522Z","modified_by":{"id":9,"username":"Toolhub"},"modified_date":"2026-06-08T17:00:44.599562Z"},{"name":"toolforge-icobot","title":"IcoBot orphaned pages list","description":"Maintenance bot for de.wikipedia.org. It generates and updates test and maintenance lists of orphaned articles based on the Toolforge wiki replicas.","url":"https://toolsadmin.wikimedia.org/tools/id/icobot","keywords":["bot","german wikipedia","maintenance","python"],"author":[{"name":"Icodense"}],"repository":null,"subtitle":null,"openhub_id":null,"url_alternates":[],"bot_username":null,"deprecated":false,"replaced_by":null,"experimental":false,"for_wikis":[],"icon":null,"license":"MIT","sponsor":[],"available_ui_languages":[],"technology_used":["Toolforge"],"tool_type":null,"api_url":null,"developer_docs_url":[],"user_docs_url":[],"feedback_url":[],"privacy_policy_url":[],"translate_url":null,"bugtracker_url":null,"annotations":{"wikidata_qid":null,"audiences":[],"content_types":[],"tasks":[],"subject_domains":[],"deprecated":false,"replaced_by":null,"experimental":false,"for_wikis":[],"icon":null,"available_ui_languages":[],"tool_type":null,"repository":null,"api_url":null,"developer_docs_url":[],"user_docs_url":[],"feedback_url":[],"privacy_policy_url":[],"translate_url":null,"bugtracker_url":null},"_schema":"/toolinfo/1.2.2","_language":"en","origin":"crawler","created_by":{"id":9,"username":"Toolhub"},"created_date":"2026-06-08T15:00:38.787443Z","modified_by":{"id":9,"username":"Toolhub"},"modified_date":"2026-06-08T15:00:38.787496Z"},{"name":"toolforge-learnbot","title":"A tool to help with learning and assessment material","description":"This tool will help students learn material and assess their progress, primarily in science, technology, engineering, and mathematics (or STEM) disciplines.","url":"https://learnbot.toolforge.org/","keywords":["assessment","elearning","learning"],"author":[{"name":"Tony Sprinkle"}],"repository":null,"subtitle":null,"openhub_id":null,"url_alternates":[],"bot_username":null,"deprecated":false,"replaced_by":null,"experimental":false,"for_wikis":[],"icon":null,"license":"GPL-3.0-or-later","sponsor":[],"available_ui_languages":[],"technology_used":["Toolforge"],"tool_type":"web app","api_url":null,"developer_docs_url":[],"user_docs_url":[],"feedback_url":[],"privacy_policy_url":[],"translate_url":null,"bugtracker_url":null,"annotations":{"wikidata_qid":null,"audiences":[],"content_types":[],"tasks":[],"subject_domains":[],"deprecated":false,"replaced_by":null,"experimental":false,"for_wikis":[],"icon":null,"available_ui_languages":[],"tool_type":null,"repository":null,"api_url":null,"developer_docs_url":[],"user_docs_url":[],"feedback_url":[],"privacy_policy_url":[],"translate_url":null,"bugtracker_url":null},"_schema":"/toolinfo/1.2.2","_language":"en","origin":"crawler","created_by":{"id":9,"username":"Toolhub"},"created_date":"2026-06-08T13:00:44.135904Z","modified_by":{"id":9,"username":"Toolhub"},"modified_date":"2026-06-08T13:00:44.135936Z"},{"name":"toolforge-voda","title":"Voda Validation Tool","description":"Tool for validation Wikidata properties P884 and P1397.","url":"https://toolsadmin.wikimedia.org/tools/id/voda","keywords":["wikidata"],"author":[{"name":"Nyuhn"}],"repository":null,"subtitle":null,"openhub_id":null,"url_alternates":[],"bot_username":null,"deprecated":false,"replaced_by":null,"experimental":false,"for_wikis":[],"icon":null,"license":"MIT","sponsor":[],"available_ui_languages":[],"technology_used":["Toolforge"],"tool_type":null,"api_url":null,"developer_docs_url":[],"user_docs_url":[],"feedback_url":[],"privacy_policy_url":[],"translate_url":null,"bugtracker_url":null,"annotations":{"wikidata_qid":null,"audiences":[],"content_types":[],"tasks":[],"subject_domains":[],"deprecated":false,"replaced_by":null,"experimental":false,"for_wikis":[],"icon":null,"available_ui_languages":[],"tool_type":null,"repository":null,"api_url":null,"developer_docs_url":[],"user_docs_url":[],"feedback_url":[],"privacy_policy_url":[],"translate_url":null,"bugtracker_url":null},"_schema":"/toolinfo/1.2.2","_language":"en","origin":"crawler","created_by":{"id":9,"username":"Toolhub"},"created_date":"2026-06-08T09:00:41.650403Z","modified_by":{"id":9,"username":"Toolhub"},"modified_date":"2026-06-08T09:00:41.650450Z"},{"name":"copyvios","title":"Copyvios","description":"Detects copyright violations in pages by searching for their contents online. Can also compare a page and a specific URL.","url":"https://copyvios.toolforge.org/","keywords":["copyvios","copyright violations","plagiarism"],"author":[{"name":"The Earwig"}],"repository":"https://github.com/earwig/copyvios","subtitle":null,"openhub_id":null,"url_alternates":[],"bot_username":null,"deprecated":false,"replaced_by":null,"experimental":false,"for_wikis":[],"icon":null,"license":null,"sponsor":[],"available_ui_languages":[],"technology_used":[],"tool_type":null,"api_url":null,"developer_docs_url":[],"user_docs_url":[],"feedback_url":[],"privacy_policy_url":[],"translate_url":null,"bugtracker_url":null,"annotations":{"wikidata_qid":null,"audiences":[],"content_types":[],"tasks":[],"subject_domains":[],"deprecated":false,"replaced_by":null,"experimental":false,"for_wikis":[],"icon":null,"available_ui_languages":["en","aa","af","ca","de","es","fr","la","pt"],"tool_type":"web app","repository":"https://github.com/earwig/copyvios","api_url":"https://copyvios.toolforge.org/api","developer_docs_url":[],"user_docs_url":[],"feedback_url":[],"privacy_policy_url":[],"translate_url":null,"bugtracker_url":"https://github.com/earwig/copyvios/issues"},"_schema":null,"_language":"en","origin":"crawler","created_by":{"id":9,"username":"Toolhub"},"created_date":"2021-10-10T21:05:20.829989Z","modified_by":{"id":261,"username":"Talk2Faves"},"modified_date":"2026-06-07T23:01:24.693565Z"},{"name":"toolforge-meteofrancetoclimat","title":"Météo-France vers modèle Climat","description":"Génère le wikicode du modèle {{Climat}} pour les articles de Wikipédia à partir des données climatologiques publiques de Météo-France (fiches FICHECLIM, data.gouv.fr). On saisit un identifiant de station ou on recherche une commune, et l'outil produit le tableau des normales 1991-2020 et des records, prêt à coller dans l'article.","url":"https://toolsadmin.wikimedia.org/tools/id/meteofrancetoclimat","keywords":[],"author":[{"name":"Jean-Christophe BENOIST"}],"repository":"https://gitlab.wikimedia.org/toolforge-repos/meteofrancetoclimat2","subtitle":null,"openhub_id":null,"url_alternates":[],"bot_username":null,"deprecated":false,"replaced_by":null,"experimental":false,"for_wikis":[],"icon":null,"license":"GPL-3.0-or-later","sponsor":[],"available_ui_languages":[],"technology_used":["Toolforge"],"tool_type":"web app","api_url":null,"developer_docs_url":[],"user_docs_url":[],"feedback_url":[],"privacy_policy_url":[],"translate_url":null,"bugtracker_url":"https://gitlab.wikimedia.org/toolforge-repos/meteofrancetoclimat2/-/issues","annotations":{"wikidata_qid":null,"audiences":[],"content_types":[],"tasks":[],"subject_domains":[],"deprecated":false,"replaced_by":null,"experimental":false,"for_wikis":[],"icon":null,"available_ui_languages":[],"tool_type":null,"repository":null,"api_url":null,"developer_docs_url":[],"user_docs_url":[],"feedback_url":[],"privacy_policy_url":[],"translate_url":null,"bugtracker_url":null},"_schema":"/toolinfo/1.2.2","_language":"en","origin":"crawler","created_by":{"id":9,"username":"Toolhub"},"created_date":"2021-10-10T20:02:39.033392Z","modified_by":{"id":9,"username":"Toolhub"},"modified_date":"2026-06-07T08:00:36.481484Z"},{"name":"toolforge-tss","title":"Tarb Stats Server","description":"A platform for reading and writing time series statistics from various Wikipedia applications run by Internet Archive.","url":"https://tss.toolforge.org/","keywords":["stats"],"author":[{"name":"Green Cardamom"}],"repository":null,"subtitle":null,"openhub_id":null,"url_alternates":[],"bot_username":null,"deprecated":false,"replaced_by":null,"experimental":false,"for_wikis":[],"icon":null,"license":"GPL-3.0-or-later","sponsor":[],"available_ui_languages":[],"technology_used":["Toolforge"],"tool_type":"web app","api_url":null,"developer_docs_url":[],"user_docs_url":[],"feedback_url":[],"privacy_policy_url":[],"translate_url":null,"bugtracker_url":null,"annotations":{"wikidata_qid":null,"audiences":[],"content_types":[],"tasks":[],"subject_domains":[],"deprecated":false,"replaced_by":null,"experimental":false,"for_wikis":[],"icon":null,"available_ui_languages":[],"tool_type":null,"repository":null,"api_url":null,"developer_docs_url":[],"user_docs_url":[],"feedback_url":[],"privacy_policy_url":[],"translate_url":null,"bugtracker_url":null},"_schema":"/toolinfo/1.2.2","_language":"en","origin":"crawler","created_by":{"id":9,"username":"Toolhub"},"created_date":"2026-06-07T03:00:41.106932Z","modified_by":{"id":9,"username":"Toolhub"},"modified_date":"2026-06-07T03:00:41.106977Z"},{"name":"enwiki-greenc-booksup","title":"BooksUp","description":"Finds, and helps you add, links to scanned copies of books and journals to {{tlx|cite book}} and {{tlx|cite journal}}","url":"https://en.wikipedia.org/wiki/User:GreenC/BooksUp.js","keywords":[],"author":[{"name":"GreenC"}],"repository":null,"subtitle":null,"openhub_id":null,"url_alternates":[],"bot_username":null,"deprecated":false,"replaced_by":null,"experimental":false,"for_wikis":[],"icon":null,"license":"CC-BY-SA-4.0","sponsor":[],"available_ui_languages":[],"technology_used":[],"tool_type":"user script","api_url":null,"developer_docs_url":[],"user_docs_url":[{"url":"https://en.wikipedia.org/wiki/User:GreenC/BooksUp","language":"en"}],"feedback_url":[],"privacy_policy_url":[],"translate_url":null,"bugtracker_url":null,"annotations":{"wikidata_qid":null,"audiences":[],"content_types":[],"tasks":[],"subject_domains":[],"deprecated":false,"replaced_by":null,"experimental":false,"for_wikis":[],"icon":null,"available_ui_languages":[],"tool_type":null,"repository":null,"api_url":null,"developer_docs_url":[],"user_docs_url":[],"feedback_url":[],"privacy_policy_url":[],"translate_url":null,"bugtracker_url":null},"_schema":null,"_language":"en","origin":"crawler","created_by":{"id":3,"username":"BDavis (WMF)"},"created_date":"2026-06-06T19:01:11.086048Z","modified_by":{"id":3,"username":"BDavis (WMF)"},"modified_date":"2026-06-06T19:01:11.086080Z"}]}